<?xml version="1.0" encoding="UTF-8" standalone="no"?>
<svg
   xmlns:dc="http://purl.org/dc/elements/1.1/"
   xmlns:cc="http://creativecommons.org/ns#"
   xmlns:rdf="http://www.w3.org/1999/02/22-rdf-syntax-ns#"
   xmlns:svg="http://www.w3.org/2000/svg"
   xmlns="http://www.w3.org/2000/svg"
   xmlns:xlink="http://www.w3.org/1999/xlink"
   xmlns:sodipodi="http://sodipodi.sourceforge.net/DTD/sodipodi-0.dtd"
   xmlns:inkscape="http://www.inkscape.org/namespaces/inkscape"
   version="1.1"
   id="svg1"
   width="16"
   height="16"
   viewBox="0 0 16 16"
   sodipodi:docname="distribute-horizontal-right-symbolic.svg"
   inkscape:version="1.0alpha2 (e9bc48ab64, 2019-07-09)">
<style id="style0001">
.success{fill:#33d17a}
.warning{fill:#f57900}
.danger{fill:#cc0000}
</style>
  
<metadata
     id="metadata3013">
    <rdf:RDF>
      <cc:Work
         rdf:about="">
        <dc:format>image/svg+xml</dc:format>
        <dc:type
           rdf:resource="http://purl.org/dc/dcmitype/StillImage" />
      </cc:Work>
    </rdf:RDF>
  </metadata>
  <defs
     id="defs3011" />
  <sodipodi:namedview
     objecttolerance="10"
     gridtolerance="10"
     guidetolerance="10"
     id="namedview"
     showgrid="true"
     inkscape:zoom="31.5625"
     inkscape:cx="8"
     inkscape:cy="8"
     inkscape:window-width="1360"
     inkscape:window-height="704"
     inkscape:window-x="0"
     inkscape:window-y="27"
     inkscape:window-maximized="1"
     inkscape:current-layer="svg1"
     inkscape:document-rotation="0">
    <inkscape:grid
       type="xygrid"
       id="grid" />
  </sodipodi:namedview>
  <g
     transform="matrix(0.666667,0,0,0.666655,-746.66667,-472.23283)"
     inkscape:label="00281"
     id="distribute-horizontal-right">
    <use
       height="1250"
       width="1250"
       transform="matrix(1,0,0,0.7500174,90,177.0778)"
       id="use18748"
       y="0"
       x="0"
       xlink:href="#path5265" />
    <path
       id="path18750"
       d="m 1125.9994,708.36164 v 0.9231 22.1538 0.9231 h 1.5 v -0.9231 -22.1538 -0.9231 z"
       style="opacity:1;stroke-width:1.22474"
       inkscape:connector-curvature="0"
       class="success" />
    <path
       inkscape:connector-curvature="0"
       id="rect18752"
       d="m 1120.9982,717.41978 v 14.94228 h 5.0012 v -14.94228 z"
       style="opacity:1" />
    <path
       sodipodi:nodetypes="ccccc"
       inkscape:connector-curvature="0"
       id="rect18754"
       d="m 1133.1963,717.36218 h 5.0054 v 9.01776 h -5.0054 z"
       style="opacity:1" />
    <path
       inkscape:connector-curvature="0"
       id="rect18756"
       d="m 1120,708.36218 h 24 v 24 h -24 z"
       style="opacity:0;fill:none" />
    <path
       sodipodi:nodetypes="ccccccccccc"
       inkscape:connector-curvature="0"
       id="path18758"
       d="m 1129.7195,713.6106 -2.2201,-2.24891 2.2201,-2.24891 v 1.49927 h 6.2793 v -1.49927 l 2.2201,2.24891 -2.2201,2.24891 v -1.49928 h -6.2793 z"
       style="opacity:1;stroke-width:0.744818"
       class="warning" />
    <path
       class="success"
       inkscape:connector-curvature="0"
       style="opacity:1;stroke-width:1.22474"
       d="m 1138.1248,708.36164 v 0.9231 22.1538 0.9231 h 1.5 v -0.9231 -22.1538 -0.9231 z"
       id="path760" />
  </g>
</svg>
